{
  "properties": [
    {
      "name": "spring.application.domain",
      "type": "java.lang.String",
      "description": "站点域名"
    },
    {
      "name": "spring.application.admin",
      "type": "java.lang.String[]",
      "description": "管理员列表"
    }
  ]
}